^C:\USERS\822\DESKTOP\MOTORGRAFICO\PROYECTOGRAFICOS\PROYECTOGRAFICOS\GAME.CPP|C:\USERS\822\DESKTOP\MOTORGRAFICO\PROYECTOGRAFICOS\PROYECTOGRAFICOS\GRAPHICS.CPP|C:\USERS\822\DESKTOP\MOTORGRAFICO\PROYECTOGRAFICOS\PROYECTOGRAFICOS\MAIN.CPP|C:\USERS\822\DESKTOP\MOTORGRAFICO\PROYECTOGRAFICOS\PROYECTOGRAFICOS\PLAYSTATE.CPP|C:\USERS\822\DESKTOP\MOTORGRAFICO\PROYECTOGRAFICOS\PROYECTOGRAFICOS\WINDOW.CPP
C:\USERS\822\DESKTOP\MOTORGRAFICO\PROYECTOGRAFICOS\PROYECTOGRAFICOS\DEBUG\VC140.PDB
C:\USERS\822\DESKTOP\MOTORGRAFICO\PROYECTOGRAFICOS\PROYECTOGRAFICOS\DEBUG\VC140.IDB
C:\USERS\822\DESKTOP\MOTORGRAFICO\PROYECTOGRAFICOS\PROYECTOGRAFICOS\DEBUG\GAME.OBJ
C:\USERS\822\DESKTOP\MOTORGRAFICO\PROYECTOGRAFICOS\PROYECTOGRAFICOS\DEBUG\GRAPHICS.OBJ
C:\USERS\822\DESKTOP\MOTORGRAFICO\PROYECTOGRAFICOS\PROYECTOGRAFICOS\DEBUG\MAIN.OBJ
C:\USERS\822\DESKTOP\MOTORGRAFICO\PROYECTOGRAFICOS\PROYECTOGRAFICOS\DEBUG\PLAYSTATE.OBJ
C:\USERS\822\DESKTOP\MOTORGRAFICO\PROYECTOGRAFICOS\PROYECTOGRAFICOS\DEBUG\WINDOW.OBJ
^C:\USERS\822\DESKTOP\MOTORGRAFICO\PROYECTOGRAFICOS\PROYECTOGRAFICOS\GAME.CPP
C:\USERS\822\DESKTOP\MOTORGRAFICO\PROYECTOGRAFICOS\PROYECTOGRAFICOS\DEBUG\VC140.PDB
C:\USERS\822\DESKTOP\MOTORGRAFICO\PROYECTOGRAFICOS\PROYECTOGRAFICOS\DEBUG\VC140.IDB
^C:\USERS\822\DESKTOP\MOTORGRAFICO\PROYECTOGRAFICOS\PROYECTOGRAFICOS\GRAPHICS.CPP
C:\USERS\822\DESKTOP\MOTORGRAFICO\PROYECTOGRAFICOS\PROYECTOGRAFICOS\DEBUG\VC140.PDB
^C:\USERS\822\DESKTOP\MOTORGRAFICO\PROYECTOGRAFICOS\PROYECTOGRAFICOS\MAIN.CPP
C:\USERS\822\DESKTOP\MOTORGRAFICO\PROYECTOGRAFICOS\PROYECTOGRAFICOS\DEBUG\VC140.PDB
^C:\USERS\822\DESKTOP\MOTORGRAFICO\PROYECTOGRAFICOS\PROYECTOGRAFICOS\PLAYSTATE.CPP
C:\USERS\822\DESKTOP\MOTORGRAFICO\PROYECTOGRAFICOS\PROYECTOGRAFICOS\DEBUG\VC140.PDB
^C:\USERS\822\DESKTOP\MOTORGRAFICO\PROYECTOGRAFICOS\PROYECTOGRAFICOS\WINDOW.CPP
C:\USERS\822\DESKTOP\MOTORGRAFICO\PROYECTOGRAFICOS\PROYECTOGRAFICOS\DEBUG\VC140.PDB
C:\USERS\822\DESKTOP\MOTORGRAFICO\PROYECTOGRAFICOS\PROYECTOGRAFICOS\DEBUG\VC140.IDB
C:\USERS\822\DESKTOP\MOTORGRAFICO\PROYECTOGRAFICOS\PROYECTOGRAFICOS\DEBUG\WINDOW.OBJ
^C:\USERS\822\DESKTOP\MOTORGRAFICO\PROYECTOGRAFICOS\PROYECTOGRAFICOS\GAME.CPP|C:\USERS\822\DESKTOP\MOTORGRAFICO\PROYECTOGRAFICOS\PROYECTOGRAFICOS\WINDOW.CPP
C:\USERS\822\DESKTOP\MOTORGRAFICO\PROYECTOGRAFICOS\PROYECTOGRAFICOS\DEBUG\VC140.PDB
C:\USERS\822\DESKTOP\MOTORGRAFICO\PROYECTOGRAFICOS\PROYECTOGRAFICOS\DEBUG\VC140.IDB
C:\USERS\822\DESKTOP\MOTORGRAFICO\PROYECTOGRAFICOS\PROYECTOGRAFICOS\DEBUG\GAME.OBJ
^C:\USERS\822\DESKTOP\MOTORGRAFICO\PROYECTOGRAFICOS\PROYECTOGRAFICOS\GAME.CPP|C:\USERS\822\DESKTOP\MOTORGRAFICO\PROYECTOGRAFICOS\PROYECTOGRAFICOS\GRAPHICS.CPP
C:\USERS\822\DESKTOP\MOTORGRAFICO\PROYECTOGRAFICOS\PROYECTOGRAFICOS\DEBUG\VC140.PDB
C:\USERS\822\DESKTOP\MOTORGRAFICO\PROYECTOGRAFICOS\PROYECTOGRAFICOS\DEBUG\VC140.IDB
C:\USERS\822\DESKTOP\MOTORGRAFICO\PROYECTOGRAFICOS\PROYECTOGRAFICOS\DEBUG\GAME.OBJ
^C:\USERS\822\DESKTOP\MOTORGRAFICO\PROYECTOGRAFICOS\PROYECTOGRAFICOS\GAME.CPP|C:\USERS\822\DESKTOP\MOTORGRAFICO\PROYECTOGRAFICOS\PROYECTOGRAFICOS\GRAPHICS.CPP|C:\USERS\822\DESKTOP\MOTORGRAFICO\PROYECTOGRAFICOS\PROYECTOGRAFICOS\WINDOW.CPP
C:\USERS\822\DESKTOP\MOTORGRAFICO\PROYECTOGRAFICOS\PROYECTOGRAFICOS\DEBUG\VC140.PDB
C:\USERS\822\DESKTOP\MOTORGRAFICO\PROYECTOGRAFICOS\PROYECTOGRAFICOS\DEBUG\VC140.IDB
C:\USERS\822\DESKTOP\MOTORGRAFICO\PROYECTOGRAFICOS\PROYECTOGRAFICOS\DEBUG\WINDOW.OBJ
C:\USERS\822\DESKTOP\MOTORGRAFICO\PROYECTOGRAFICOS\PROYECTOGRAFICOS\DEBUG\GAME.OBJ
