^C:\USERS\822\DESKTOP\MOTORGRAFICO\PROYECTOGRAFICOS\PROYECTOGRAFICOS\DEBUG\GAME.OBJ|C:\USERS\822\DESKTOP\MOTORGRAFICO\PROYECTOGRAFICOS\PROYECTOGRAFICOS\DEBUG\GRAPHICS.OBJ|C:\USERS\822\DESKTOP\MOTORGRAFICO\PROYECTOGRAFICOS\PROYECTOGRAFICOS\DEBUG\MAIN.OBJ|C:\USERS\822\DESKTOP\MOTORGRAFICO\PROYECTOGRAFICOS\PROYECTOGRAFICOS\DEBUG\PLAYSTATE.OBJ|C:\USERS\822\DESKTOP\MOTORGRAFICO\PROYECTOGRAFICOS\PROYECTOGRAFICOS\DEBUG\WINDOW.OBJ
C:\USERS\822\DESKTOP\MOTORGRAFICO\PROYECTOGRAFICOS\DEBUG\PROYECTOGRAFICOS.ILK
C:\USERS\822\DESKTOP\MOTORGRAFICO\PROYECTOGRAFICOS\DEBUG\PROYECTOGRAFICOS.EXE
C:\USERS\822\DESKTOP\MOTORGRAFICO\PROYECTOGRAFICOS\DEBUG\PROYECTOGRAFICOS.PDB
